1,Spider Man,1,Male,2,76,USA,4,4,3,3,1,4
4,Wolverine,3,Male,2,88,Canada,2,4,2,4,1,7
5,Thor,5,Male,2,290,Norway,2,7,7,6,6,4
11,Jean Greay,8,Female,2,52,USA,3,2,7,7,7,4
12,Rogue,4,Female,2,54,USA,7,7,7,7,7,7
